…
First we nest the data frames by category:

``` r
by_group<-
  sale_augmented %>% 
  select(ADDRESS,SALE_DATE,Building_Type, SALE.PRICE, AssessTotal) %>% 
  mutate(SalePriceToAssesstmentRatio = SALE.PRICE/AssessTotal) %>% 
  filter(!is.na(SalePriceToAssesstmentRatio)) %>% 
  group_by(Building_Type) %>% 
  nest()

by_group
```

    ## # A tibble: 27 x 2
    ##    Building_Type                   data
    ##            <chr>                 <list>
    ##  1             B <tibble [126,091 x 5]>
    ##  2             C  <tibble [93,813 x 5]>
    ##  3             D <tibble [114,460 x 5]>
    ##  4             S  <tibble [17,402 x 5]>
    ##  5             K   <tibble [9,499 x 5]>
    ##  6             L     <tibble [819 x 5]>
    ##  7             V  <tibble [14,529 x 5]>
    ##  8             E   <tibble [3,327 x 5]>
    ##  9             I     <tibble [520 x 5]>
    ## 10             M     <tibble [921 x 5]>
    ## # ... with 17 more rows
…
